<?xml version="1.0" encoding="UTF-8" standalone="no"?>
<!-- Created with Inkscape (http://www.inkscape.org/) -->

<svg
   xmlns:dc="http://purl.org/dc/elements/1.1/"
   xmlns:cc="http://creativecommons.org/ns#"
   xmlns:rdf="http://www.w3.org/1999/02/22-rdf-syntax-ns#"
   xmlns:svg="http://www.w3.org/2000/svg"
   xmlns="http://www.w3.org/2000/svg"
   xmlns:sodipodi="http://sodipodi.sourceforge.net/DTD/sodipodi-0.dtd"
   xmlns:inkscape="http://www.inkscape.org/namespaces/inkscape"
   width="64"
   height="64"
   viewBox="0 0 16.933333 16.933334"
   version="1.1"
   id="svg4397"
   inkscape:version="0.92.5 (2060ec1f9f, 2020-04-08)"
   sodipodi:docname="favicon.svg">
  <defs
     id="defs4391" />
  <sodipodi:namedview
     id="base"
     pagecolor="#ffffff"
     bordercolor="#666666"
     borderopacity="1.0"
     inkscape:pageopacity="0.0"
     inkscape:pageshadow="2"
     inkscape:zoom="13.9375"
     inkscape:cx="31.964126"
     inkscape:cy="32"
     inkscape:document-units="px"
     inkscape:current-layer="layer1"
     showgrid="true"
     units="px"
     showguides="true"
     inkscape:guide-bbox="true"
     inkscape:window-width="1920"
     inkscape:window-height="1136"
     inkscape:window-x="0"
     inkscape:window-y="27"
     inkscape:window-maximized="1">
    <inkscape:grid
       type="xygrid"
       id="grid4399" />
    <sodipodi:guide
       position="8.9958334,14.2875"
       orientation="0,1"
       id="guide4401"
       inkscape:locked="false" />
    <sodipodi:guide
       position="8.4666667,2.6458334"
       orientation="0,1"
       id="guide4403"
       inkscape:locked="false" />
    <sodipodi:guide
       position="1.3229166,10.31875"
       orientation="1,0"
       id="guide4405"
       inkscape:locked="false" />
    <sodipodi:guide
       position="15.610416,7.4083336"
       orientation="1,0"
       id="guide4407"
       inkscape:locked="false" />
    <sodipodi:guide
       position="8.4666665,8.466667"
       orientation="0,1"
       id="guide4409"
       inkscape:locked="false" />
    <sodipodi:guide
       position="8.4666667,9.7895834"
       orientation="0,1"
       id="guide4411"
       inkscape:locked="false" />
    <sodipodi:guide
       position="8.2020832,7.1437503"
       orientation="0,1"
       id="guide4413"
       inkscape:locked="false" />
    <sodipodi:guide
       position="3.9687499,9.5250004"
       orientation="1,0"
       id="guide4415"
       inkscape:locked="false" />
    <sodipodi:guide
       position="12.964583,9.7895837"
       orientation="1,0"
       id="guide4417"
       inkscape:locked="false" />
  </sodipodi:namedview>
  <metadata
     id="metadata4394">
    <rdf:RDF>
      <cc:Work
         rdf:about="">
        <dc:format>image/svg+xml</dc:format>
        <dc:type
           rdf:resource="http://purl.org/dc/dcmitype/StillImage" />
        <dc:title></dc:title>
      </cc:Work>
    </rdf:RDF>
  </metadata>
  <g
     inkscape:label="Layer 1"
     inkscape:groupmode="layer"
     id="layer1"
     transform="translate(0,-280.06665)">
    <path
       style="fill:none;stroke:#000000;stroke-width:1.05833334;stroke-linecap:butt;stroke-linejoin:round;stroke-opacity:1;stroke-miterlimit:4;stroke-dasharray:none"
       d="m 1.3229166,282.71248 2.6458332,4.49792 h 8.9958342 l 2.645832,-4.49792 z"
       id="path4419"
       inkscape:connector-curvature="0" />
    <path
       style="fill:none;stroke:#000000;stroke-width:0.52916667;stroke-linecap:round;stroke-linejoin:miter;stroke-miterlimit:4;stroke-dasharray:none;stroke-opacity:1"
       d="M 3.9687501,284.0354 H 12.964583"
       id="path4421"
       inkscape:connector-curvature="0" />
    <path
       style="fill:none;stroke:#000000;stroke-width:0.396875;stroke-linecap:round;stroke-linejoin:miter;stroke-opacity:1;stroke-miterlimit:4;stroke-dasharray:none"
       d="M 4.7625001,285.35832 H 12.170834"
       id="path4423"
       inkscape:connector-curvature="0" />
    <path
       inkscape:connector-curvature="0"
       id="path4427"
       d="m 1.3229166,294.35416 2.6458332,-4.49792 h 8.9958342 l 2.645832,4.49792 z"
       style="fill:none;stroke:#000000;stroke-width:1.05833334;stroke-linecap:butt;stroke-linejoin:round;stroke-miterlimit:4;stroke-dasharray:none;stroke-opacity:1" />
    <path
       inkscape:connector-curvature="0"
       id="path4431"
       d="M 4.7625001,292.23748 H 12.170834"
       style="fill:none;stroke:#000000;stroke-width:0.39687499;stroke-linecap:round;stroke-linejoin:miter;stroke-miterlimit:4;stroke-dasharray:none;stroke-opacity:1" />
    <path
       inkscape:connector-curvature="0"
       id="path4433"
       d="M 5.2916668,291.17915 H 11.641667"
       style="fill:none;stroke:#000000;stroke-width:0.26458335;stroke-linecap:round;stroke-linejoin:miter;stroke-miterlimit:4;stroke-dasharray:none;stroke-opacity:1" />
  </g>
</svg>
